<?xml version="1.0" encoding="UTF-8"?>
<svg width="44px" height="40px" viewBox="0 0 44 40" version="1.1" xmlns="http://www.w3.org/2000/svg" xmlns:xlink="http://www.w3.org/1999/xlink">
    <!-- Generator: Sketch 48.2 (47327) - http://www.bohemiancoding.com/sketch -->
    <title>Sugar Icons-58</title>
    <desc>Created with Sketch.</desc>
    <defs></defs>
    <g id="(Sub-page)-Offshore-Hiring" stroke="none" stroke-width="1" fill="none" fill-rule="evenodd" transform="translate(-585.000000, -1982.000000)">
        <g id="WHAT-WE-PROVIDE" transform="translate(78.000000, 1981.000000)">
            <g id="Sugar-Icons-58" transform="translate(508.000000, 2.000000)">
                <path d="M10.5003312,34.6815633 C6.36325285,34.6692695 3.01236801,31.2374165 3,27 L3,31.3899493 C3.0386675,35.6043828 6.38517995,39 10.5,39 C14.6148201,39 17.9613325,35.6043828 18,31.3899493 L18,27 C17.9876338,31.2371527 14.6371508,34.6688972 10.5003312,34.6815633 Z" id="Shape" fill="#A19975" fill-rule="nonzero"></path>
                <path d="M31.4996688,34.6815633 C27.3628492,34.6688972 24.0123662,31.2371527 24,27 L24,31.3899493 C24.0386675,35.6043828 27.3851799,39 31.5,39 C35.6148201,39 38.9613325,35.6043828 39,31.3899493 L39,27 C38.987632,31.2374165 35.6367471,34.6692695 31.4996688,34.6815633 Z" id="Shape" fill="#A19975" fill-rule="nonzero"></path>
                <ellipse id="Oval" fill="#8D704F" fill-rule="nonzero" cx="10.5" cy="29.5" rx="7.5" ry="6.5"></ellipse>
                <ellipse id="Oval" fill="#8D704F" fill-rule="nonzero" cx="31.5" cy="29.5" rx="7.5" ry="6.5"></ellipse>
                <path d="M12,14.8256698 C14.7580417,14.8341007 16.9918521,17.1455094 17,19.9993603 L17,8.17369055 C17,5.31634016 14.7614237,3 12,3 C9.23857625,3 7,5.31634016 7,8.17369055 L7,20 C7.00780857,17.1458993 9.24171783,14.8341025 12,14.8256698 Z" id="Shape" fill="#8D704F" fill-rule="nonzero"></path>
                <rect id="Rectangle-path" stroke="#8D704F" x="0" y="0" width="42" height="23" rx="11.5"></rect>
                <path d="M29,14.8256698 C31.7580417,14.8341007 33.9918521,17.1455094 34,19.9993603 L34,8.17369055 C34,5.31634016 31.7614237,3 29,3 C26.2385763,3 24,5.31634016 24,8.17369055 L24,20 C24.0078086,17.1458993 26.2417178,14.8341025 29,14.8256698 Z" id="Shape" fill="#8D704F" fill-rule="nonzero"></path>
                <path d="M31.4996688,22.6597235 C35.6370047,22.6714718 38.9879955,25.9509535 39,30 L39,14.271299 C38.9613325,10.2444657 35.6148201,7 31.5,7 C27.3851799,7 24.0386675,10.2444657 24,14.271299 L24,30 C24.0120027,25.9512056 27.3625916,22.6718275 31.4996688,22.6597235 Z" id="Shape" fill="#A19975" fill-rule="nonzero"></path>
                <path d="M10.5003312,23.6750667 C14.6371508,23.6871447 17.9876338,26.9595645 18,31 L18,14.2567408 C17.9613325,10.2379698 14.6148201,7 10.5,7 C6.38517995,7 3.0386675,10.2379698 3,14.2567408 L3,31 C3.01236801,26.9593129 6.36325285,23.6867897 10.5003312,23.6750667 Z" id="Shape" fill="#A19975" fill-rule="nonzero"></path>
                <rect id="Rectangle-path" fill="#8D704F" fill-rule="nonzero" x="18" y="14" width="6" height="13"></rect>
                <rect id="Rectangle-path" fill="#FDA274" fill-rule="nonzero" x="19" y="16" width="2" height="6" rx="1"></rect>
            </g>
        </g>
    </g>
</svg>