<?xml version="1.0" encoding="UTF-8"?>
<svg width="628px" height="233px" viewBox="0 0 628 233" version="1.1" xmlns="http://www.w3.org/2000/svg" xmlns:xlink="http://www.w3.org/1999/xlink">
    <!-- Generator: Sketch 48.2 (47327) - http://www.bohemiancoding.com/sketch -->
    <title>Dploy Logo Big Hero</title>
    <desc>Created with Sketch.</desc>
    <defs></defs>
    <g id="Dploy" stroke="none" stroke-width="1" fill="none" fill-rule="evenodd" transform="translate(-31.000000, -162.000000)" opacity="0.0522531703">
        <g id="HERO" transform="translate(0.000000, -3.000000)" fill="#FFFFFF" fill-rule="nonzero">
            <g id="Dploy-Logo-Big-Hero" transform="translate(31.000000, 165.000000)">
                <path d="M0,94.43 C0,65.3233333 0,36.2166667 0,7.11 C0,5.37 0.47,4.91 2.19,4.91 C29.65,5 57.11,4.81 84.57,5 C93.2657988,5.08116093 101.948566,5.69229414 110.57,6.83 C119.8,8.04 128.82,10.29 137.23,14.7 C142.07,17.24 144.56,21.3 146.4,26.05 C151.03,38.05 152.99,50.66 153.4,63.41 C153.93,81.87 153.98,100.35 153.86,118.82 C153.829165,128.835685 152.685481,138.816931 150.45,148.58 C149.02,154.75 146.92,160.77 144.92,166.79 C143.7,170.47 140.59,172.53 137.38,174.33 C130.74,178.05 123.38,179.65 116.04,181.08 C104.404856,183.219813 92.5893905,184.224529 80.76,184.08 C54.5533333,184.033333 28.3466667,184.033333 2.14,184.08 C0.14,184.08 0.14,184.03 0.14,181.74 C0.14,152.633333 0.14,123.526667 0.14,94.42 L0,94.43 Z M19.89,93.93 C19.89,116.436667 19.89,138.943333 19.89,161.45 C19.89,163.21 19.95,164.98 19.89,166.73 C19.82,168.31 20.49,168.84 22.02,168.73 C24.23,168.64 26.45,168.73 28.67,168.73 C50.25,168.37 71.86,169.65 93.42,167.73 C102.17,166.93 110.75,165.44 118.85,161.84 C123.1,159.95 126.4,157.1 127.85,152.61 C129.27124,148.302778 130.449757,143.919226 131.38,139.48 C133.263399,129.6532 134.356894,119.691364 134.65,109.69 C135.296914,95.4937704 134.905873,81.2692474 133.48,67.13 C132.27,56.28 130.77,45.49 127.13,35.13 C126.581526,33.4157425 125.659343,31.8446171 124.43,30.53 C120.43,26.64 115.27,24.92 110.08,23.53 C99.08,20.53 87.84,19.6 76.52,19.43 C68.05,19.3 59.58,19.43 51.11,19.43 C41.45,19.43 31.79,19.43 22.11,19.43 C20.46,19.43 19.8,20.03 19.91,21.61 C19.91,21.95 19.91,22.29 19.91,22.61 C19.9166667,46.35 19.92,70.1266667 19.92,93.94 L19.89,93.93 Z" id="Shape"></path>
                <path d="M200.68,73.34 C200.85,72.89 201.05,72.46 201.18,72 C201.68,70.26 202.18,68.51 202.65,66.76 C203.84,62.36 206.8,59.76 210.99,58.3 C222.82,54.2 234.99,53.8 247.34,54.72 C251.59,55.04 255.86,55.18 260.08,55.72 C267.980847,56.7422297 275.713473,58.7964187 283.08,61.83 C288.5,64.04 290.66,68.56 292.35,73.69 C295.77,84.04 297.01,94.69 297.76,105.52 C298.612599,117.546063 298.441985,129.622821 297.25,141.62 C296.25,151.62 294.49,161.54 290.71,170.95 C289.498625,174.056956 287.060615,176.527521 283.97,177.78 C276.232449,181.23676 267.997809,183.450663 259.57,184.34 C252.460947,185.155359 245.315083,185.609277 238.16,185.7 C228.91,185.7 219.62,185.09 210.8,181.81 C207.41,180.55 204.25,178.74 202.4,175.49 C201.52,173.95 201.26,172.08 200.63,170.39 C200.345402,169.838072 199.992644,169.324053 199.58,168.86 C199.261689,169.400371 199.041622,169.992859 198.93,170.61 C199.236667,190.096667 199.57,209.583333 199.93,229.07 C199.93,231.35 199.93,231.35 197.69,231.34 L183.2,231.34 C180.97,231.34 180.92,231.29 180.92,229.04 C180.92,197.606667 180.92,166.173333 180.92,134.74 C180.92,109.16 180.92,83.5833333 180.92,58.01 C180.92,56.27 181.42,55.74 183.14,55.79 C187.51,55.89 191.89,55.87 196.27,55.79 C197.62,55.79 198.17,56.17 198.27,57.58 C198.7,62.39 199.27,67.18 199.8,71.98 C199.90988,72.4636908 200.074264,72.933359 200.29,73.38 L200.68,73.34 Z M278.9,120.34 L279.39,120.34 C278.66,111 278.14,101.64 277.12,92.34 C276.64,87.98 275.28,83.7 274.12,79.43 C273.57,77.36 271.93,76.04 270.12,75.03 C265.4,72.45 260.22,71.38 254.99,70.64 C242.13,68.83 229.26,68.52 216.6,71.96 C213.497474,72.856019 210.530532,74.1679325 207.78,75.86 C203.27,78.56 201.99,83.42 200.7,88.07 C198.46,96.07 197.95,104.43 197.7,112.71 C197.32,126.18 197.52,139.66 200.63,152.87 C201.268119,155.572877 202.277722,158.174286 203.63,160.6 C204.67708,162.481533 206.158111,164.085983 207.95,165.28 C212.354986,167.909969 217.291898,169.52258 222.4,170 C232.854091,171.22749 243.415909,171.22749 253.87,170 C259.36674,169.496431 264.735438,168.04854 269.74,165.72 C272.035119,164.757076 273.790548,162.833418 274.54,160.46 C275.275216,158.130436 275.872913,155.759684 276.33,153.36 C278.190333,142.46128 279.050578,131.415328 278.9,120.36 L278.9,120.34 Z" id="Shape"></path>
                <path d="M426.46,186 C419.01,185.27 409.65,184.64 400.39,183.36 C393.580062,182.304431 386.974948,180.199431 380.81,177.12 C378.15,175.85 376.69,173.44 375.61,170.82 C372.519739,162.873066 370.501989,154.549848 369.61,146.07 C368.426797,136.135861 367.918965,126.132891 368.09,116.13 C368.053618,104.815746 369.237123,93.5305409 371.62,82.47 C372.77,77.47 374.71,72.65 376.39,67.77 C377.24,65.3 379.28,63.84 381.48,62.77 C387.414751,59.9107712 393.71855,57.8914016 400.21,56.77 C411.061088,54.7882333 422.099017,54.0201732 433.12,54.48 C443.33,54.78 453.56,55.48 463.44,58.42 C467.44,59.61 471.25,61.17 475.08,62.75 C478.24,64.06 480,66.64 481.24,69.83 C486.24,82.55 487.85,95.83 488.54,109.35 C489.019274,119.170015 488.858935,129.010812 488.06,138.81 C487.32002,150.192768 484.809876,161.390574 480.62,172 C479.667811,174.460876 477.769898,176.438018 475.35,177.49 C466.832087,181.30471 457.737063,183.670565 448.44,184.49 C441.77,185.17 435.07,185.45 426.46,186 Z M387.31,119.71 C387.31,132.01 388.02,144.24 390.51,156.32 C391.18,159.58 391.97,162.86 395.21,164.62 C396.91207,165.543022 398.680253,166.338538 400.5,167 C406.976114,169.343368 413.794113,170.603583 420.68,170.73 C427.88,170.89 435.1,170.59 442.29,170.13 C448.52338,169.635351 454.618698,168.033637 460.29,165.4 C462.994012,164.344751 464.948013,161.950626 465.44,159.09 C466.66,152.27 467.94,145.45 468.68,138.57 C469.850888,127.197868 469.951329,115.740912 468.98,104.35 C468.408113,96.5276208 467.268444,88.7571509 465.57,81.1 C464.88,78.1 463.43,75.65 460.48,74.53 C456.870437,73.0273497 453.153368,71.7972403 449.36,70.85 C441.286078,69.1619756 433.025657,68.5400066 424.79,69 C416.17,69.43 407.58,70.28 399.32,73.17 C394.72,74.78 391.45,77.35 390.67,82.41 C390.48,83.64 390.15,84.86 389.94,86.09 C388.06439,97.2027731 387.184233,108.460758 387.31,119.73 L387.31,119.71 Z" id="Shape"></path>
                <path d="M499.3,55.9 C500.17,55.84 500.72,55.78 501.3,55.78 C506.64,55.78 511.99,55.78 517.3,55.78 C518.445504,55.6389723 519.521628,56.3578064 519.83,57.47 C525.663333,71.2166667 531.536667,84.9466667 537.45,98.66 C541.676667,108.52 545.903333,118.383333 550.13,128.25 C554.923333,139.416667 559.723333,150.58 564.53,161.74 C564.592103,161.959874 564.693764,162.166585 564.83,162.35 C565.24,162.76 565.7,163.12 566.13,163.5 C566.52142,163.129567 566.858129,162.705313 567.13,162.24 C568.48,158.87 569.79,155.47 571.13,152.08 L583.8,119.17 L600.71,75.31 C603,69.38 605.33,63.46 607.56,57.51 C607.799726,56.383166 608.85509,55.6219203 610,55.75 C615.46,55.83 620.91,55.75 626.37,55.75 C628.11,55.75 628.29,56.03 627.66,57.65 C622.4,71.2633333 617.133333,84.8733333 611.86,98.48 C606.193333,113.093333 600.526667,127.703333 594.86,142.31 C588.366667,159.036667 581.87,175.766667 575.37,192.5 C572.3,200.38 569.27,208.28 566.06,216.1 C564.408778,220.152091 561.332048,223.460021 557.41,225.4 C550.256358,229.087613 542.435125,231.301362 534.41,231.91 C529.425389,232.403456 524.418957,232.643765 519.41,232.63 C514.73,232.51 515.5,232.63 515.46,228.5 C515.46,225.37 515.46,222.25 515.46,219.12 C515.46,217.77 515.89,217.27 517.25,217.43 C523.723848,218.102557 530.265717,217.61835 536.57,216 C542.69,214.55 547.49,211.57 549.89,205.32 C552.82,197.69 556,190.15 559.12,182.59 C559.66,181.29 559.12,180.93 557.99,180.9 C557.365556,180.918058 556.74062,180.891322 556.12,180.82 C553.12,180.3 550.61,179.27 549.3,176.02 C545.93,167.65 542.25,159.4 538.77,151.07 C533.82,139.23 528.94,127.36 524.03,115.5 C517.503333,99.7666667 510.973333,84.0333333 504.44,68.3 C502.96,64.74 501.44,61.19 499.95,57.63 C499.75,57.2 499.6,56.72 499.3,55.9 Z" id="Shape"></path>
                <path d="M342.52,92.75 C342.52,122.423333 342.52,152.09 342.52,181.75 C342.52,183.99 342.52,184 340.21,183.99 C335.49,183.99 330.77,183.99 326.06,183.99 C323.81,183.991107 323.81,183.991107 323.81,181.7 C323.81,126.106667 323.81,70.5133333 323.81,14.92 C323.81,10.92 323.81,6.85 323.81,2.81 C323.81,1.38 324.3,0.96 325.7,0.98 C330.646667,1.05333333 335.593333,1.05333333 340.54,0.98 C342.11,0.98 342.59,1.46 342.54,3.03 C342.5,32.93 342.5,62.83 342.54,92.73 L342.52,92.75 Z" id="Shape"></path>
            </g>
        </g>
    </g>
</svg>